EESchema Schematic File Version 4
EELAYER 30 0
EELAYER END
$Descr A4 11693 8268
encoding utf-8
Sheet 1 1
Title ""
Date ""
Rev ""
Comp ""
Comment1 ""
Comment2 ""
Comment3 ""
Comment4 ""
$EndDescr
$Comp
L Timer:TPL5111 U2
U 1 1 5E2CE346
P 2425 1825
F 0 "U2" H 1975 2400 50  0000 C CNN
F 1 "TPL5111" H 2075 2300 50  0000 C CNN
F 2 "Package_TO_SOT_SMD:SOT-23-6" H 2425 1825 50  0001 C CNN
F 3 "http://www.ti.com/lit/ds/symlink/tpl5111.pdf" H 775 1975 50  0001 C CNN
	1    2425 1825
	1    0    0    -1  
$EndComp
$Comp
L Connector:Conn_01x02_Female J3
U 1 1 5E2D188D
P 3425 3175
F 0 "J3" H 3317 3360 50  0000 C CNN
F 1 " B2B-PH-K-S(LF)(SN) " H 3317 3269 50  0000 C CNN
F 2 "Connector_JST:JST_PH_B2B-PH-K_1x02_P2.00mm_Vertical" H 3425 3175 50  0001 C CNN
F 3 "~" H 3425 3175 50  0001 C CNN
	1    3425 3175
	-1   0    0    -1  
$EndComp
$Comp
L power:GND #PWR022
U 1 1 5E2D1D3B
P 3625 3275
F 0 "#PWR022" H 3625 3025 50  0001 C CNN
F 1 "GND" H 3630 3102 50  0001 C CNN
F 2 "" H 3625 3275 50  0001 C CNN
F 3 "" H 3625 3275 50  0001 C CNN
	1    3625 3275
	1    0    0    -1  
$EndComp
Text Label 3625 3175 0    50   ~ 0
BAT+
Text Label 950  1100 2    50   ~ 0
BAT+
Wire Wire Line
	2425 1175 2425 1325
$Comp
L Device:C_Small C3
U 1 1 5E2DAAEC
P 1550 1275
F 0 "C3" H 1665 1321 50  0000 L CNN
F 1 "0.1u" H 1665 1230 50  0000 L CNN
F 2 "Capacitor_SMD:C_0603_1608Metric" H 1588 1125 50  0001 C CNN
F 3 "~" H 1550 1275 50  0001 C CNN
	1    1550 1275
	1    0    0    -1  
$EndComp
$Comp
L power:GND #PWR016
U 1 1 5E2DAFA4
P 2425 2225
F 0 "#PWR016" H 2425 1975 50  0001 C CNN
F 1 "GND" H 2430 2052 50  0001 C CNN
F 2 "" H 2425 2225 50  0001 C CNN
F 3 "" H 2425 2225 50  0001 C CNN
	1    2425 2225
	1    0    0    -1  
$EndComp
$Comp
L power:GND #PWR09
U 1 1 5E2DB7CA
P 1550 1375
F 0 "#PWR09" H 1550 1125 50  0001 C CNN
F 1 "GND" H 1555 1202 50  0001 C CNN
F 2 "" H 1550 1375 50  0001 C CNN
F 3 "" H 1550 1375 50  0001 C CNN
	1    1550 1375
	1    0    0    -1  
$EndComp
$Comp
L Device:R R6
U 1 1 5E2DC238
P 1650 2000
F 0 "R6" H 1720 2046 50  0000 L CNN
F 1 "124k" V 1650 1900 50  0000 L CNN
F 2 "Resistor_SMD:R_0603_1608Metric" V 1580 2000 50  0001 C CNN
F 3 "~" H 1650 2000 50  0001 C CNN
	1    1650 2000
	1    0    0    -1  
$EndComp
Wire Wire Line
	1825 1825 1650 1825
Wire Wire Line
	1650 1825 1650 1850
$Comp
L power:GND #PWR010
U 1 1 5E2DD246
P 1650 2150
F 0 "#PWR010" H 1650 1900 50  0001 C CNN
F 1 "GND" H 1655 1977 50  0001 C CNN
F 2 "" H 1650 2150 50  0001 C CNN
F 3 "" H 1650 2150 50  0001 C CNN
	1    1650 2150
	1    0    0    -1  
$EndComp
$Comp
L Switch:SW_Push_Dual SW1
U 1 1 5E2DD819
P 1225 2025
F 0 "SW1" H 975 1675 50  0000 C CNN
F 1 "USLPT2616CT2TR" H 1225 1750 50  0000 C CNN
F 2 "kbkicad:Switch-USLPT2616CT2TR" H 1225 2225 50  0001 C CNN
F 3 "~" H 1225 2225 50  0001 C CNN
	1    1225 2025
	1    0    0    -1  
$EndComp
Wire Wire Line
	950  1175 950  1725
Wire Wire Line
	950  2025 1025 2025
Wire Wire Line
	950  1100 950  1175
Connection ~ 950  1175
Wire Wire Line
	1825 1725 950  1725
Connection ~ 950  1725
Wire Wire Line
	950  1725 950  2025
Wire Wire Line
	1025 2225 950  2225
Wire Wire Line
	950  2225 950  2025
Connection ~ 950  2025
Wire Wire Line
	1425 2225 1425 2025
Wire Wire Line
	1425 1825 1650 1825
Connection ~ 1425 2025
Wire Wire Line
	1425 2025 1425 1825
Connection ~ 1650 1825
$Comp
L kb-kicad:TPS73733DCQR U3
U 1 1 5E2E2157
P 3550 1225
F 0 "U3" H 3600 1500 50  0000 C CNN
F 1 "TPS73733DCQR" H 3600 1409 50  0000 C CNN
F 2 "Package_TO_SOT_SMD:SOT-223-6" H 3350 1225 50  0001 C CNN
F 3 "" H 3350 1225 50  0001 C CNN
	1    3550 1225
	1    0    0    -1  
$EndComp
Wire Wire Line
	2925 1725 3150 1725
$Comp
L power:GND #PWR018
U 1 1 5E2E4887
P 3550 1475
F 0 "#PWR018" H 3550 1225 50  0001 C CNN
F 1 "GND" H 3555 1302 50  0001 C CNN
F 2 "" H 3550 1475 50  0001 C CNN
F 3 "" H 3550 1475 50  0001 C CNN
	1    3550 1475
	1    0    0    -1  
$EndComp
$Comp
L Device:C_Small C15
U 1 1 5E2E4DE7
P 4000 1375
F 0 "C15" H 4115 1421 50  0000 L CNN
F 1 "0.1u" H 4115 1330 50  0000 L CNN
F 2 "Capacitor_SMD:C_0603_1608Metric" H 4038 1225 50  0001 C CNN
F 3 "~" H 4000 1375 50  0001 C CNN
	1    4000 1375
	1    0    0    -1  
$EndComp
$Comp
L power:GND #PWR021
U 1 1 5E2E608E
P 4000 1475
F 0 "#PWR021" H 4000 1225 50  0001 C CNN
F 1 "GND" H 4005 1302 50  0001 C CNN
F 2 "" H 4000 1475 50  0001 C CNN
F 3 "" H 4000 1475 50  0001 C CNN
	1    4000 1475
	1    0    0    -1  
$EndComp
$Comp
L Device:C_Small C16
U 1 1 5E2E660E
P 4400 1275
F 0 "C16" H 4515 1321 50  0000 L CNN
F 1 "10u" H 4515 1230 50  0000 L CNN
F 2 "Capacitor_SMD:C_0603_1608Metric" H 4438 1125 50  0001 C CNN
F 3 "~" H 4400 1275 50  0001 C CNN
	1    4400 1275
	1    0    0    -1  
$EndComp
$Comp
L power:GND #PWR023
U 1 1 5E2E7258
P 4400 1375
F 0 "#PWR023" H 4400 1125 50  0001 C CNN
F 1 "GND" H 4405 1202 50  0001 C CNN
F 2 "" H 4400 1375 50  0001 C CNN
F 3 "" H 4400 1375 50  0001 C CNN
	1    4400 1375
	1    0    0    -1  
$EndComp
$Comp
L Device:C_Small C18
U 1 1 5E2E7741
P 5150 1275
F 0 "C18" H 5265 1321 50  0000 L CNN
F 1 "0.1u" H 5265 1230 50  0000 L CNN
F 2 "Capacitor_SMD:C_0603_1608Metric" H 5188 1125 50  0001 C CNN
F 3 "~" H 5150 1275 50  0001 C CNN
	1    5150 1275
	1    0    0    -1  
$EndComp
$Comp
L power:GND #PWR025
U 1 1 5E2E7C30
P 4775 1375
F 0 "#PWR025" H 4775 1125 50  0001 C CNN
F 1 "GND" H 4780 1202 50  0001 C CNN
F 2 "" H 4775 1375 50  0001 C CNN
F 3 "" H 4775 1375 50  0001 C CNN
	1    4775 1375
	1    0    0    -1  
$EndComp
$Comp
L Device:C_Small C17
U 1 1 5E2E86D2
P 4775 1275
F 0 "C17" H 4890 1321 50  0000 L CNN
F 1 "10u" H 4890 1230 50  0000 L CNN
F 2 "Capacitor_SMD:C_0603_1608Metric" H 4813 1125 50  0001 C CNN
F 3 "~" H 4775 1275 50  0001 C CNN
	1    4775 1275
	1    0    0    -1  
$EndComp
$Comp
L power:GND #PWR026
U 1 1 5E2E9738
P 5150 1375
F 0 "#PWR026" H 5150 1125 50  0001 C CNN
F 1 "GND" H 5155 1202 50  0001 C CNN
F 2 "" H 5150 1375 50  0001 C CNN
F 3 "" H 5150 1375 50  0001 C CNN
	1    5150 1375
	1    0    0    -1  
$EndComp
Text Notes 2600 750  0    100  ~ 0
TIMED POWER
Wire Notes Line
	6300 2625 6300 475 
$Comp
L Device:Q_PMOS_GSD Q3
U 1 1 5E2FB054
P 1975 3275
F 0 "Q3" H 2181 3245 50  0000 L CNN
F 1 "RZM001P02T2L" H 2181 3321 30  0000 L CNN
F 2 "Package_TO_SOT_SMD:SOT-723" H 2175 3375 50  0001 C CNN
F 3 "~" H 1975 3275 50  0001 C CNN
	1    1975 3275
	1    0    0    1   
$EndComp
$Comp
L Device:Q_NMOS_GSD Q2
U 1 1 5E2FE0EE
P 1375 3525
F 0 "Q2" H 1581 3555 50  0000 L CNN
F 1 "RUM001L02T2CL" H 1581 3479 30  0000 L CNN
F 2 "Package_TO_SOT_SMD:SOT-723" H 1575 3625 50  0001 C CNN
F 3 "~" H 1375 3525 50  0001 C CNN
	1    1375 3525
	1    0    0    -1  
$EndComp
Text Label 1350 2975 2    50   ~ 0
BAT+
$Comp
L Device:R R4
U 1 1 5E3016C3
P 1175 3800
F 0 "R4" H 1245 3846 50  0000 L CNN
F 1 "10k" V 1175 3725 50  0000 L CNN
F 2 "Resistor_SMD:R_0603_1608Metric" V 1105 3800 50  0001 C CNN
F 3 "~" H 1175 3800 50  0001 C CNN
	1    1175 3800
	1    0    0    -1  
$EndComp
$Comp
L power:GND #PWR07
U 1 1 5E301F42
P 1175 3950
F 0 "#PWR07" H 1175 3700 50  0001 C CNN
F 1 "GND" H 1180 3777 50  0001 C CNN
F 2 "" H 1175 3950 50  0001 C CNN
F 3 "" H 1175 3950 50  0001 C CNN
	1    1175 3950
	1    0    0    -1  
$EndComp
Wire Wire Line
	1175 3650 1175 3525
Wire Wire Line
	1175 3525 1100 3525
Connection ~ 1175 3525
$Comp
L power:GND #PWR08
U 1 1 5E303414
P 1475 3725
F 0 "#PWR08" H 1475 3475 50  0001 C CNN
F 1 "GND" H 1480 3552 50  0001 C CNN
F 2 "" H 1475 3725 50  0001 C CNN
F 3 "" H 1475 3725 50  0001 C CNN
	1    1475 3725
	1    0    0    -1  
$EndComp
$Comp
L Device:R R5
U 1 1 5E30385A
P 1475 3125
F 0 "R5" H 1545 3171 50  0000 L CNN
F 1 "10k" V 1475 3050 50  0000 L CNN
F 2 "Resistor_SMD:R_0603_1608Metric" V 1405 3125 50  0001 C CNN
F 3 "~" H 1475 3125 50  0001 C CNN
	1    1475 3125
	1    0    0    -1  
$EndComp
Wire Wire Line
	1350 2975 1475 2975
Wire Wire Line
	1475 2975 2075 2975
Wire Wire Line
	2075 2975 2075 3075
Connection ~ 1475 2975
Wire Wire Line
	1775 3275 1475 3275
Wire Wire Line
	1475 3275 1475 3325
Connection ~ 1475 3275
$Comp
L Device:R R7
U 1 1 5E30A6D9
P 2075 3625
F 0 "R7" H 2145 3671 50  0000 L CNN
F 1 "49.9k" V 2075 3550 30  0000 L CNN
F 2 "Resistor_SMD:R_0603_1608Metric" V 2005 3625 50  0001 C CNN
F 3 "~" H 2075 3625 50  0001 C CNN
	1    2075 3625
	1    0    0    -1  
$EndComp
$Comp
L Device:R R8
U 1 1 5E30ACBD
P 2075 4000
F 0 "R8" H 2145 4046 50  0000 L CNN
F 1 "10k" V 2075 3925 50  0000 L CNN
F 2 "Resistor_SMD:R_0603_1608Metric" V 2005 4000 50  0001 C CNN
F 3 "~" H 2075 4000 50  0001 C CNN
	1    2075 4000
	1    0    0    -1  
$EndComp
$Comp
L power:GND #PWR012
U 1 1 5E30B134
P 2075 4150
F 0 "#PWR012" H 2075 3900 50  0001 C CNN
F 1 "GND" H 2080 3977 50  0001 C CNN
F 2 "" H 2075 4150 50  0001 C CNN
F 3 "" H 2075 4150 50  0001 C CNN
	1    2075 4150
	1    0    0    -1  
$EndComp
Wire Wire Line
	2075 3850 2075 3800
Wire Wire Line
	2075 3800 2250 3800
Connection ~ 2075 3800
Wire Wire Line
	2075 3800 2075 3775
Text Label 2250 3800 0    50   ~ 0
BAT_DIV
Text Notes 975  2800 0    100  ~ 0
BATTERY VOLTAGE
Wire Notes Line
	3025 4325 3025 2625
$Comp
L Device:C_Small C14
U 1 1 5E319B70
P 3100 1925
F 0 "C14" H 3215 1971 50  0000 L CNN
F 1 "10u" H 3215 1880 50  0000 L CNN
F 2 "Capacitor_SMD:C_0603_1608Metric" H 3138 1775 50  0001 C CNN
F 3 "~" H 3100 1925 50  0001 C CNN
	1    3100 1925
	1    0    0    -1  
$EndComp
$Comp
L Device:R R9
U 1 1 5E31A36A
P 3550 1975
F 0 "R9" H 3620 2021 50  0000 L CNN
F 1 "10k" V 3550 1925 30  0000 L CNN
F 2 "Resistor_SMD:R_0603_1608Metric" V 3480 1975 50  0001 C CNN
F 3 "~" H 3550 1975 50  0001 C CNN
	1    3550 1975
	-1   0    0    1   
$EndComp
$Comp
L Device:R R10
U 1 1 5E31AB2C
P 3550 2325
F 0 "R10" H 3620 2371 50  0000 L CNN
F 1 "10k" V 3550 2275 30  0000 L CNN
F 2 "Resistor_SMD:R_0603_1608Metric" V 3480 2325 50  0001 C CNN
F 3 "~" H 3550 2325 50  0001 C CNN
	1    3550 2325
	-1   0    0    1   
$EndComp
Wire Wire Line
	2425 1175 3200 1175
Connection ~ 2425 1175
Wire Wire Line
	3200 1275 3150 1275
Wire Wire Line
	3150 1275 3150 1725
$Comp
L power:GND #PWR017
U 1 1 5E324F77
P 3100 2025
F 0 "#PWR017" H 3100 1775 50  0001 C CNN
F 1 "GND" H 3105 1852 50  0001 C CNN
F 2 "" H 3100 2025 50  0001 C CNN
F 3 "" H 3100 2025 50  0001 C CNN
	1    3100 2025
	1    0    0    -1  
$EndComp
$Comp
L power:GND #PWR019
U 1 1 5E3254B7
P 3550 2475
F 0 "#PWR019" H 3550 2225 50  0001 C CNN
F 1 "GND" H 3555 2302 50  0001 C CNN
F 2 "" H 3550 2475 50  0001 C CNN
F 3 "" H 3550 2475 50  0001 C CNN
	1    3550 2475
	1    0    0    -1  
$EndComp
Wire Wire Line
	3550 2175 3550 2150
Wire Wire Line
	3550 2150 3675 2150
Connection ~ 3550 2150
Wire Wire Line
	3550 2150 3550 2125
Text Label 3675 2150 0    50   ~ 0
DONE
$Comp
L Device:Q_NMOS_GSD Q1
U 1 1 5E2D720F
P 1325 5675
F 0 "Q1" H 1531 5645 50  0000 L CNN
F 1 "IRLML6344TRPBF" H 1531 5721 30  0000 L CNN
F 2 "Package_TO_SOT_SMD:SOT-23" H 1525 5775 50  0001 C CNN
F 3 "~" H 1325 5675 50  0001 C CNN
	1    1325 5675
	1    0    0    1   
$EndComp
$Comp
L Device:R R1
U 1 1 5E2E6D08
P 925 5675
F 0 "R1" V 850 5625 50  0000 L CNN
F 1 "10k" V 925 5600 50  0000 L CNN
F 2 "Resistor_SMD:R_0603_1608Metric" V 855 5675 50  0001 C CNN
F 3 "~" H 925 5675 50  0001 C CNN
	1    925  5675
	0    -1   -1   0   
$EndComp
NoConn ~ 3000 5150
NoConn ~ 3000 5650
NoConn ~ 3000 5750
Wire Wire Line
	1075 5675 1075 5575
Wire Wire Line
	1075 5675 1125 5675
Text Label 3000 5250 2    50   ~ 0
GDR
Text Label 1075 5575 2    50   ~ 0
GDR
Text Label 3000 5350 2    50   ~ 0
RESE
$Comp
L Device:R R3
U 1 1 5E300F57
P 950 5300
F 0 "R3" V 875 5200 50  0000 L CNN
F 1 "3" V 950 5225 50  0000 L CNN
F 2 "Resistor_SMD:R_0603_1608Metric" V 880 5300 50  0001 C CNN
F 3 "~" H 950 5300 50  0001 C CNN
	1    950  5300
	0    -1   -1   0   
$EndComp
$Comp
L Device:R R2
U 1 1 5E301613
P 950 5200
F 0 "R2" V 875 5100 50  0000 L CNN
F 1 "0.47" V 950 5125 50  0000 L CNN
F 2 "Resistor_SMD:R_0603_1608Metric" V 880 5200 50  0001 C CNN
F 3 "~" H 950 5200 50  0001 C CNN
	1    950  5200
	0    1    1    0   
$EndComp
$Comp
L power:GND #PWR02
U 1 1 5E302071
P 800 5375
F 0 "#PWR02" H 800 5125 50  0001 C CNN
F 1 "GND" H 805 5202 50  0001 C CNN
F 2 "" H 800 5375 50  0001 C CNN
F 3 "" H 800 5375 50  0001 C CNN
	1    800  5375
	1    0    0    -1  
$EndComp
Text Label 1525 5200 0    50   ~ 0
RESE
$Comp
L Device:L_Small L1
U 1 1 5E304809
P 1175 6125
F 0 "L1" V 1250 6125 50  0000 C CNN
F 1 "68uH" V 1125 6125 50  0000 C CNN
F 2 "Inductor_SMD:L_1210_3225Metric" H 1175 6125 50  0001 C CNN
F 3 "~" H 1175 6125 50  0001 C CNN
	1    1175 6125
	0    -1   -1   0   
$EndComp
Wire Wire Line
	1275 6125 1425 6125
Wire Wire Line
	1425 6125 1425 5875
$Comp
L Device:C_Small C1
U 1 1 5E306F51
P 975 6125
F 0 "C1" V 1125 6075 50  0000 L CNN
F 1 "4.7u/50v" H 900 6125 20  0000 L CNN
F 2 "Capacitor_SMD:C_0603_1608Metric" H 1013 5975 50  0001 C CNN
F 3 "~" H 975 6125 50  0001 C CNN
	1    975  6125
	0    -1   -1   0   
$EndComp
$Comp
L power:GND #PWR03
U 1 1 5E308818
P 875 6125
F 0 "#PWR03" H 875 5875 50  0001 C CNN
F 1 "GND" H 880 5952 50  0001 C CNN
F 2 "" H 875 6125 50  0001 C CNN
F 3 "" H 875 6125 50  0001 C CNN
	1    875  6125
	1    0    0    -1  
$EndComp
$Comp
L power:+3.3V #PWR027
U 1 1 5E30A1CD
P 5400 1175
F 0 "#PWR027" H 5400 1025 50  0001 C CNN
F 1 "+3.3V" H 5415 1348 50  0000 C CNN
F 2 "" H 5400 1175 50  0001 C CNN
F 3 "" H 5400 1175 50  0001 C CNN
	1    5400 1175
	1    0    0    -1  
$EndComp
$Comp
L power:+3.3V #PWR06
U 1 1 5E30C07C
P 1100 3525
F 0 "#PWR06" H 1100 3375 50  0001 C CNN
F 1 "+3.3V" H 1115 3698 50  0000 C CNN
F 2 "" H 1100 3525 50  0001 C CNN
F 3 "" H 1100 3525 50  0001 C CNN
	1    1100 3525
	1    0    0    -1  
$EndComp
$Comp
L Device:D_Schottky_Small D3
U 1 1 5E30DEF8
P 1675 6575
F 0 "D3" H 1725 6675 50  0000 R CNN
F 1 "MBR0530T1G" H 1725 6725 10  0000 R CNN
F 2 "Diode_SMD:D_SOD-123" V 1675 6575 50  0001 C CNN
F 3 "~" V 1675 6575 50  0001 C CNN
	1    1675 6575
	-1   0    0    1   
$EndComp
$Comp
L Device:D_Schottky_Small D2
U 1 1 5E310473
P 1675 6375
F 0 "D2" H 1625 6450 50  0000 L CNN
F 1 "MBR0530T1G" H 1625 6500 10  0000 L CNN
F 2 "Diode_SMD:D_SOD-123" V 1675 6375 50  0001 C CNN
F 3 "~" V 1675 6375 50  0001 C CNN
	1    1675 6375
	1    0    0    -1  
$EndComp
$Comp
L Device:D_Schottky_Small D1
U 1 1 5E3123FE
P 1675 6125
F 0 "D1" H 1725 6050 50  0000 R CNN
F 1 "MBR0530T1G" H 1700 6000 10  0000 R CNN
F 2 "Diode_SMD:D_SOD-123" V 1675 6125 50  0001 C CNN
F 3 "~" V 1675 6125 50  0001 C CNN
	1    1675 6125
	-1   0    0    1   
$EndComp
$Comp
L Device:C_Small C2
U 1 1 5E3142A0
P 1425 6375
F 0 "C2" H 1450 6450 50  0000 L CNN
F 1 "4.7u/50v" H 1350 6375 20  0000 L CNN
F 2 "Capacitor_SMD:C_0603_1608Metric" H 1463 6225 50  0001 C CNN
F 3 "~" H 1425 6375 50  0001 C CNN
	1    1425 6375
	-1   0    0    1   
$EndComp
Connection ~ 1425 6125
$Comp
L power:GND #PWR011
U 1 1 5E31DB02
P 1775 6575
F 0 "#PWR011" H 1775 6325 50  0001 C CNN
F 1 "GND" H 1780 6402 50  0001 C CNN
F 2 "" H 1775 6575 50  0001 C CNN
F 3 "" H 1775 6575 50  0001 C CNN
	1    1775 6575
	1    0    0    -1  
$EndComp
Text Label 3000 7350 2    50   ~ 0
PREVGL
Text Label 1775 6375 0    50   ~ 0
PREVGL
Text Label 3000 7150 2    50   ~ 0
PREVGH
Text Label 1775 6125 0    50   ~ 0
PREVGH
$Comp
L Device:C_Small C8
U 1 1 5E31F12C
P 2425 7450
F 0 "C8" V 2475 7300 50  0000 L CNN
F 1 "1u/50v" H 2350 7450 20  0000 L CNN
F 2 "Capacitor_SMD:C_0603_1608Metric" H 2463 7300 50  0001 C CNN
F 3 "~" H 2425 7450 50  0001 C CNN
	1    2425 7450
	0    1    1    0   
$EndComp
$Comp
L Device:C_Small C12
U 1 1 5E322631
P 2650 7350
F 0 "C12" V 2700 7200 50  0000 L CNN
F 1 "1u/50v" H 2575 7350 20  0000 L CNN
F 2 "Capacitor_SMD:C_0603_1608Metric" H 2688 7200 50  0001 C CNN
F 3 "~" H 2650 7350 50  0001 C CNN
	1    2650 7350
	0    1    1    0   
$EndComp
$Comp
L Device:C_Small C7
U 1 1 5E323474
P 2425 7250
F 0 "C7" V 2475 7100 50  0000 L CNN
F 1 "1u/50v" H 2350 7250 20  0000 L CNN
F 2 "Capacitor_SMD:C_0603_1608Metric" H 2463 7100 50  0001 C CNN
F 3 "~" H 2425 7250 50  0001 C CNN
	1    2425 7250
	0    1    1    0   
$EndComp
$Comp
L Device:C_Small C11
U 1 1 5E3239EA
P 2650 7150
F 0 "C11" V 2700 7000 50  0000 L CNN
F 1 "1u/50v" H 2575 7150 20  0000 L CNN
F 2 "Capacitor_SMD:C_0603_1608Metric" H 2688 7000 50  0001 C CNN
F 3 "~" H 2650 7150 50  0001 C CNN
	1    2650 7150
	0    1    1    0   
$EndComp
$Comp
L Device:C_Small C6
U 1 1 5E324192
P 2425 7050
F 0 "C6" V 2475 6900 50  0000 L CNN
F 1 "1u/50v" H 2350 7050 20  0000 L CNN
F 2 "Capacitor_SMD:C_0603_1608Metric" H 2463 6900 50  0001 C CNN
F 3 "~" H 2425 7050 50  0001 C CNN
	1    2425 7050
	0    1    1    0   
$EndComp
$Comp
L Device:C_Small C10
U 1 1 5E324700
P 2650 6950
F 0 "C10" V 2700 6800 50  0000 L CNN
F 1 "1u/50v" H 2575 6950 20  0000 L CNN
F 2 "Capacitor_SMD:C_0603_1608Metric" H 2688 6800 50  0001 C CNN
F 3 "~" H 2650 6950 50  0001 C CNN
	1    2650 6950
	0    1    1    0   
$EndComp
$Comp
L Device:C_Small C5
U 1 1 5E326179
P 2425 6850
F 0 "C5" V 2475 6700 50  0000 L CNN
F 1 "1u/50v" H 2350 6850 20  0000 L CNN
F 2 "Capacitor_SMD:C_0603_1608Metric" H 2463 6700 50  0001 C CNN
F 3 "~" H 2425 6850 50  0001 C CNN
	1    2425 6850
	0    1    1    0   
$EndComp
$Comp
L Device:C_Small C13
U 1 1 5E328686
P 2725 5450
F 0 "C13" V 2775 5300 50  0000 L CNN
F 1 "1u/50v" H 2650 5450 20  0000 L CNN
F 2 "Capacitor_SMD:C_0603_1608Metric" H 2763 5300 50  0001 C CNN
F 3 "~" H 2725 5450 50  0001 C CNN
	1    2725 5450
	0    1    -1   0   
$EndComp
$Comp
L Device:C_Small C9
U 1 1 5E32949D
P 2475 5550
F 0 "C9" V 2525 5400 50  0000 L CNN
F 1 "1u/50v" H 2400 5550 20  0000 L CNN
F 2 "Capacitor_SMD:C_0603_1608Metric" H 2513 5400 50  0001 C CNN
F 3 "~" H 2475 5550 50  0001 C CNN
	1    2475 5550
	0    1    1    0   
$EndComp
$Comp
L power:GND #PWR015
U 1 1 5E34D1B8
P 2275 7575
F 0 "#PWR015" H 2275 7325 50  0001 C CNN
F 1 "GND" H 2280 7402 50  0001 C CNN
F 2 "" H 2275 7575 50  0001 C CNN
F 3 "" H 2275 7575 50  0001 C CNN
	1    2275 7575
	1    0    0    -1  
$EndComp
Connection ~ 2275 6950
Connection ~ 2275 7150
Connection ~ 2275 7350
$Comp
L ws:E2213CS091-Epaper-24PinConn J1
U 1 1 5E2E06F6
P 3300 6250
F 0 "J1" H 3528 6251 50  0000 L CNN
F 1 " SFV24R-3STBE1HLF " V 3450 4975 50  0000 L CNN
F 2 "ws:FPC_24-SFV24R-3STBE1HLF" H 3100 7050 50  0001 C CNN
F 3 "" H 3100 7050 50  0001 C CNN
	1    3300 6250
	1    0    0    -1  
$EndComp
Wire Wire Line
	2575 5550 3000 5550
Wire Wire Line
	2825 5450 3000 5450
$Comp
L power:GND #PWR01
U 1 1 5E37A5C9
P 775 5675
F 0 "#PWR01" H 775 5425 50  0001 C CNN
F 1 "GND" H 780 5502 50  0001 C CNN
F 2 "" H 775 5675 50  0001 C CNN
F 3 "" H 775 5675 50  0001 C CNN
	1    775  5675
	1    0    0    -1  
$EndComp
Text Label 2625 5850 0    50   ~ 0
BS
$Comp
L Jumper:SolderJumper_3_Bridged12 JP1
U 1 1 5E3FCBEE
P 925 7150
F 0 "JP1" H 925 7355 50  0000 C CNN
F 1 "EPDCONFIG" H 925 7264 50  0000 C CNN
F 2 "Jumper:SolderJumper-3_P1.3mm_Bridged2Bar12_Pad1.0x1.5mm" H 925 7150 50  0001 C CNN
F 3 "~" H 925 7150 50  0001 C CNN
	1    925  7150
	0    -1   -1   0   
$EndComp
$Comp
L power:+3.3V #PWR04
U 1 1 5E402D27
P 925 6950
F 0 "#PWR04" H 925 6800 50  0001 C CNN
F 1 "+3.3V" H 940 7123 50  0000 C CNN
F 2 "" H 925 6950 50  0001 C CNN
F 3 "" H 925 6950 50  0001 C CNN
	1    925  6950
	1    0    0    -1  
$EndComp
$Comp
L power:GND #PWR05
U 1 1 5E4039D5
P 925 7350
F 0 "#PWR05" H 925 7100 50  0001 C CNN
F 1 "GND" H 930 7177 50  0001 C CNN
F 2 "" H 925 7350 50  0001 C CNN
F 3 "" H 925 7350 50  0001 C CNN
	1    925  7350
	1    0    0    -1  
$EndComp
Text Label 1075 7150 0    50   ~ 0
BS
Text Notes 1025 7325 0    30   ~ 0
GND = 4-wire (Default)\nVCC = 3-wire
Connection ~ 1075 5675
Text Notes 800  5100 0    30   ~ 0
populate just one of these Rs \nbased on size of EPD
Wire Wire Line
	3000 6750 2275 6750
Text Label 2625 5950 0    50   ~ 0
EPD_BUSY
Text Label 2625 6050 0    50   ~ 0
EPD_RST
Text Label 2625 6150 0    50   ~ 0
EPD_DC
Text Label 2625 6250 0    50   ~ 0
EPD_CS
Wire Wire Line
	3000 5950 2625 5950
Wire Wire Line
	2625 6050 3000 6050
Wire Wire Line
	3000 6150 2625 6150
Wire Wire Line
	2625 6250 3000 6250
Wire Wire Line
	2625 5850 3000 5850
$Comp
L power:GND #PWR013
U 1 1 5E4469CE
P 2275 5700
F 0 "#PWR013" H 2275 5450 50  0001 C CNN
F 1 "GND" H 2280 5527 50  0001 C CNN
F 2 "" H 2275 5700 50  0001 C CNN
F 3 "" H 2275 5700 50  0001 C CNN
	1    2275 5700
	1    0    0    -1  
$EndComp
Text Label 2625 6350 0    50   ~ 0
EDP_CLK
$Comp
L power:+3.3V #PWR014
U 1 1 5E30ADFB
P 2275 6550
F 0 "#PWR014" H 2275 6400 50  0001 C CNN
F 1 "+3.3V" V 2300 6750 50  0000 C CNN
F 2 "" H 2275 6550 50  0001 C CNN
F 3 "" H 2275 6550 50  0001 C CNN
	1    2275 6550
	1    0    0    -1  
$EndComp
Wire Wire Line
	3000 6650 2850 6650
Wire Wire Line
	2850 6650 2850 6550
Wire Wire Line
	2850 6550 3000 6550
$Comp
L Device:C_Small C4
U 1 1 5E4557B1
P 2275 6650
F 0 "C4" H 2367 6696 50  0000 L CNN
F 1 "0.1u/50v" H 2367 6605 50  0000 L CNN
F 2 "Capacitor_SMD:C_0603_1608Metric" H 2275 6650 50  0001 C CNN
F 3 "~" H 2275 6650 50  0001 C CNN
	1    2275 6650
	1    0    0    -1  
$EndComp
Connection ~ 2275 6750
Wire Wire Line
	2275 6550 2850 6550
Connection ~ 2275 6550
Connection ~ 2850 6550
Wire Wire Line
	950  1175 1550 1175
Wire Wire Line
	2925 1825 3100 1825
Wire Wire Line
	2275 6750 2275 6850
Wire Wire Line
	2275 6950 2275 7050
Wire Wire Line
	2275 7150 2275 7250
Wire Wire Line
	2275 7350 2275 7450
Wire Wire Line
	4000 1175 4400 1175
Connection ~ 1550 1175
Wire Wire Line
	1550 1175 2425 1175
Connection ~ 3100 1825
Wire Wire Line
	3100 1825 3550 1825
Connection ~ 4400 1175
Wire Wire Line
	4400 1175 4775 1175
Connection ~ 4775 1175
Wire Wire Line
	4775 1175 5150 1175
Connection ~ 5150 1175
Wire Wire Line
	5150 1175 5400 1175
Wire Wire Line
	1575 6375 1575 6475
Wire Wire Line
	1575 6475 1425 6475
Connection ~ 1575 6475
Wire Wire Line
	1575 6475 1575 6575
Wire Wire Line
	1425 6275 1425 6125
Wire Wire Line
	1575 6125 1425 6125
Wire Wire Line
	800  5375 800  5300
Connection ~ 800  5300
Wire Wire Line
	800  5300 800  5200
Wire Wire Line
	1100 5200 1425 5200
Wire Wire Line
	1425 5200 1425 5300
Wire Wire Line
	1525 5200 1425 5200
Connection ~ 1425 5200
Wire Wire Line
	1100 5300 1425 5300
Connection ~ 1425 5300
Wire Wire Line
	1425 5300 1425 5475
Wire Wire Line
	2275 5450 2625 5450
Wire Wire Line
	2375 5550 2275 5550
Wire Wire Line
	2275 5450 2275 5550
Connection ~ 2275 5550
Wire Wire Line
	2275 5550 2275 5700
Wire Wire Line
	2525 6850 3000 6850
Wire Wire Line
	2275 6950 2550 6950
Wire Wire Line
	2750 6950 3000 6950
Wire Wire Line
	2525 7050 3000 7050
Wire Wire Line
	2325 7050 2275 7050
Connection ~ 2275 7050
Wire Wire Line
	2275 7050 2275 7150
Wire Wire Line
	2325 6850 2275 6850
Connection ~ 2275 6850
Wire Wire Line
	2275 6850 2275 6950
Wire Wire Line
	2275 7150 2550 7150
Wire Wire Line
	2750 7150 3000 7150
Wire Wire Line
	2525 7250 3000 7250
Wire Wire Line
	2325 7250 2275 7250
Connection ~ 2275 7250
Wire Wire Line
	2275 7250 2275 7350
Wire Wire Line
	2525 7450 3000 7450
Wire Wire Line
	2275 7350 2550 7350
Wire Wire Line
	2750 7350 3000 7350
Wire Wire Line
	2325 7450 2275 7450
Connection ~ 2275 7450
Wire Wire Line
	2275 7450 2275 7575
Wire Wire Line
	2625 6350 3000 6350
Text Label 2625 6450 0    50   ~ 0
EDP_DATA
Wire Wire Line
	2625 6450 3000 6450
$Comp
L kb-kicad:SHT3x U4
U 1 1 5E4BF651
P 7150 1950
F 0 "U4" H 7075 2315 50  0000 C CNN
F 1 "SHT3x" H 7075 2224 50  0000 C CNN
F 2 "ws:DFN-8-1EP_2.5x2.5mm_P0.5mm_EP1x1.7mm" H 7150 1950 50  0001 C CNN
F 3 "https://media.digikey.com/pdf/Data%20Sheets/Sensirion%20PDFs/HT_DS_SHT3x_DIS.pdf" H 7150 1950 50  0001 C CNN
	1    7150 1950
	1    0    0    -1  
$EndComp
$Comp
L power:GND #PWR033
U 1 1 5E4C3890
P 7100 2250
F 0 "#PWR033" H 7100 2000 50  0001 C CNN
F 1 "GND" H 7105 2077 50  0001 C CNN
F 2 "" H 7100 2250 50  0001 C CNN
F 3 "" H 7100 2250 50  0001 C CNN
	1    7100 2250
	1    0    0    -1  
$EndComp
$Comp
L power:GND #PWR032
U 1 1 5E4C451F
P 6700 2050
F 0 "#PWR032" H 6700 1800 50  0001 C CNN
F 1 "GND" H 6705 1877 50  0001 C CNN
F 2 "" H 6700 2050 50  0001 C CNN
F 3 "" H 6700 2050 50  0001 C CNN
	1    6700 2050
	1    0    0    -1  
$EndComp
NoConn ~ 6700 1950
$Comp
L power:+3.3V #PWR034
U 1 1 5E4CB67D
P 7450 1500
F 0 "#PWR034" H 7450 1350 50  0001 C CNN
F 1 "+3.3V" H 7575 1600 50  0000 C CNN
F 2 "" H 7450 1500 50  0001 C CNN
F 3 "" H 7450 1500 50  0001 C CNN
	1    7450 1500
	1    0    0    -1  
$EndComp
Text Label 7750 1950 0    50   ~ 0
SHT31_CLK
Text Label 7750 2050 0    50   ~ 0
SHT31_DATA
$Comp
L Device:R R12
U 1 1 5E4D0C17
P 7575 1700
F 0 "R12" V 7500 1650 50  0000 L CNN
F 1 "10k" V 7575 1625 50  0000 L CNN
F 2 "Resistor_SMD:R_0603_1608Metric" V 7505 1700 50  0001 C CNN
F 3 "~" H 7575 1700 50  0001 C CNN
	1    7575 1700
	1    0    0    -1  
$EndComp
$Comp
L Device:R R13
U 1 1 5E4D2597
P 7675 1700
F 0 "R13" V 7600 1650 50  0000 L CNN
F 1 "10k" V 7675 1625 50  0000 L CNN
F 2 "Resistor_SMD:R_0603_1608Metric" V 7605 1700 50  0001 C CNN
F 3 "~" H 7675 1700 50  0001 C CNN
	1    7675 1700
	-1   0    0    -1  
$EndComp
Wire Wire Line
	7450 1500 7450 1525
Wire Wire Line
	7450 1950 7575 1950
Wire Wire Line
	7750 2050 7675 2050
Wire Wire Line
	7575 1850 7575 1950
Connection ~ 7575 1950
Wire Wire Line
	7575 1950 7750 1950
Wire Wire Line
	7675 1850 7675 2050
Connection ~ 7675 2050
Wire Wire Line
	7675 2050 7450 2050
Wire Wire Line
	7450 1525 7575 1525
Wire Wire Line
	7575 1525 7575 1550
Connection ~ 7450 1525
Wire Wire Line
	7450 1525 7450 1850
Wire Wire Line
	7575 1525 7675 1525
Wire Wire Line
	7675 1525 7675 1550
Connection ~ 7575 1525
Wire Notes Line
	8425 2625 8425 475 
Text Notes 6525 700  0    100  ~ 0
TEMPERATURE SENSOR
Text Notes 1625 4600 0    100  ~ 0
EPD DISPLAY
Wire Notes Line
	3800 4325 3800 7800
Text Notes 3150 2825 0    100  ~ 0
BATTERY CONN
Wire Notes Line
	475  4325 4800 4325
$Comp
L power:+3.3V #PWR030
U 1 1 5E547917
P 6375 3050
F 0 "#PWR030" H 6375 2900 50  0001 C CNN
F 1 "+3.3V" H 6390 3223 50  0000 C CNN
F 2 "" H 6375 3050 50  0001 C CNN
F 3 "" H 6375 3050 50  0001 C CNN
	1    6375 3050
	1    0    0    -1  
$EndComp
NoConn ~ 5775 4700
NoConn ~ 5775 4800
NoConn ~ 5775 4900
NoConn ~ 5775 5000
NoConn ~ 5775 5100
NoConn ~ 5775 5200
$Comp
L Device:C_Small C20
U 1 1 5E55C46C
P 6150 3175
F 0 "C20" H 6225 3200 50  0000 L CNN
F 1 "10u" H 6225 3125 50  0000 L CNN
F 2 "Capacitor_SMD:C_0603_1608Metric" H 6188 3025 50  0001 C CNN
F 3 "~" H 6150 3175 50  0001 C CNN
	1    6150 3175
	1    0    0    -1  
$EndComp
$Comp
L Device:C_Small C19
U 1 1 5E55D0A7
P 6000 3175
F 0 "C19" H 6125 3175 50  0000 L CNN
F 1 "0.1u" H 6050 3100 50  0000 L CNN
F 2 "Capacitor_SMD:C_0603_1608Metric" H 6038 3025 50  0001 C CNN
F 3 "~" H 6000 3175 50  0001 C CNN
	1    6000 3175
	-1   0    0    -1  
$EndComp
Wire Wire Line
	6375 3050 6375 3075
Wire Wire Line
	6000 3075 6150 3075
Connection ~ 6375 3075
Wire Wire Line
	6375 3075 6375 3300
Connection ~ 6150 3075
Wire Wire Line
	6150 3075 6375 3075
$Comp
L power:GND #PWR028
U 1 1 5E56491E
P 6000 3275
F 0 "#PWR028" H 6000 3025 50  0001 C CNN
F 1 "GND" H 6005 3102 50  0001 C CNN
F 2 "" H 6000 3275 50  0001 C CNN
F 3 "" H 6000 3275 50  0001 C CNN
	1    6000 3275
	1    0    0    -1  
$EndComp
$Comp
L power:GND #PWR029
U 1 1 5E564E08
P 6150 3275
F 0 "#PWR029" H 6150 3025 50  0001 C CNN
F 1 "GND" H 6155 3102 50  0001 C CNN
F 2 "" H 6150 3275 50  0001 C CNN
F 3 "" H 6150 3275 50  0001 C CNN
	1    6150 3275
	1    0    0    -1  
$EndComp
$Comp
L Device:R R11
U 1 1 5E565C13
P 5650 3225
F 0 "R11" V 5575 3175 50  0000 L CNN
F 1 "10k" V 5650 3150 50  0000 L CNN
F 2 "Resistor_SMD:R_0603_1608Metric" V 5580 3225 50  0001 C CNN
F 3 "~" H 5650 3225 50  0001 C CNN
	1    5650 3225
	1    0    0    -1  
$EndComp
Wire Wire Line
	5775 3500 5650 3500
Wire Wire Line
	5650 3500 5650 3375
Wire Wire Line
	5650 3075 6000 3075
Connection ~ 6000 3075
$Comp
L power:GND #PWR031
U 1 1 5E571C18
P 6375 6100
F 0 "#PWR031" H 6375 5850 50  0001 C CNN
F 1 "GND" H 6380 5927 50  0001 C CNN
F 2 "" H 6375 6100 50  0001 C CNN
F 3 "" H 6375 6100 50  0001 C CNN
	1    6375 6100
	1    0    0    -1  
$EndComp
$Comp
L Connector:Conn_01x03_Male J4
U 1 1 5E57B7AD
P 4200 4850
F 0 "J4" H 4308 5131 50  0000 C CNN
F 1 "TSM-103-02-T-SH " V 4125 4850 30  0000 C CNN
F 2 "Connector_Harwin:Harwin_M20-89003xx_1x03_P2.54mm_Horizontal" H 4200 4850 50  0001 C CNN
F 3 "~" H 4200 4850 50  0001 C CNN
	1    4200 4850
	1    0    0    -1  
$EndComp
Text Label 6975 3600 0    50   ~ 0
TX
Text Label 6975 3800 0    50   ~ 0
RX
Text Label 4400 4850 0    50   ~ 0
TX
Text Label 4400 4750 0    50   ~ 0
RX
$Comp
L power:GND #PWR024
U 1 1 5E586909
P 4400 4950
F 0 "#PWR024" H 4400 4700 50  0001 C CNN
F 1 "GND" H 4405 4777 50  0001 C CNN
F 2 "" H 4400 4950 50  0001 C CNN
F 3 "" H 4400 4950 50  0001 C CNN
	1    4400 4950
	1    0    0    -1  
$EndComp
Text Notes 4000 4475 0    50   ~ 0
UART DOWNLOAD
Wire Notes Line
	4800 5150 3800 5150
Wire Notes Line
	4800 2625 4800 5150
Text Label 6975 4800 0    50   ~ 0
SHT31_CLK
Text Label 6975 4700 0    50   ~ 0
SHT31_DATA
Text Label 6975 4300 0    50   ~ 0
EDP_CLK
Text Label 6975 4200 0    50   ~ 0
EDP_DATA
$Comp
L Sensor:BME280 U5
U 1 1 5E5A1761
P 9775 1775
F 0 "U5" H 9346 1821 50  0000 R CNN
F 1 "BME280" H 9346 1730 50  0000 R CNN
F 2 "Package_LGA:Bosch_LGA-8_2.5x2.5mm_P0.65mm_ClockwisePinNumbering" H 11275 1325 50  0001 C CNN
F 3 "https://ae-bst.resource.bosch.com/media/_tech/media/datasheets/BST-BME280-DS002.pdf" H 9775 1575 50  0001 C CNN
	1    9775 1775
	1    0    0    -1  
$EndComp
$Comp
L power:+3.3V #PWR038
U 1 1 5E5A20CE
P 9775 900
F 0 "#PWR038" H 9775 750 50  0001 C CNN
F 1 "+3.3V" H 9900 1000 50  0000 C CNN
F 2 "" H 9775 900 50  0001 C CNN
F 3 "" H 9775 900 50  0001 C CNN
	1    9775 900 
	1    0    0    -1  
$EndComp
$Comp
L Device:C_Small C21
U 1 1 5E5A2F94
P 7875 1625
F 0 "C21" H 7990 1671 50  0000 L CNN
F 1 "0.1u" H 7990 1580 50  0000 L CNN
F 2 "Capacitor_SMD:C_0603_1608Metric" H 7913 1475 50  0001 C CNN
F 3 "~" H 7875 1625 50  0001 C CNN
	1    7875 1625
	1    0    0    -1  
$EndComp
$Comp
L power:GND #PWR036
U 1 1 5E5A4608
P 7875 1725
F 0 "#PWR036" H 7875 1475 50  0001 C CNN
F 1 "GND" H 7880 1552 50  0001 C CNN
F 2 "" H 7875 1725 50  0001 C CNN
F 3 "" H 7875 1725 50  0001 C CNN
	1    7875 1725
	1    0    0    -1  
$EndComp
Wire Wire Line
	7675 1525 7875 1525
Connection ~ 7675 1525
$Comp
L Device:C_Small C22
U 1 1 5E5A970C
P 9575 1075
F 0 "C22" H 9690 1121 50  0000 L CNN
F 1 "0.1u" H 9690 1030 50  0000 L CNN
F 2 "Capacitor_SMD:C_0603_1608Metric" H 9613 925 50  0001 C CNN
F 3 "~" H 9575 1075 50  0001 C CNN
	1    9575 1075
	-1   0    0    -1  
$EndComp
$Comp
L Device:C_Small C23
U 1 1 5E5AA480
P 9975 1075
F 0 "C23" H 10090 1121 50  0000 L CNN
F 1 "0.1u" H 10090 1030 50  0000 L CNN
F 2 "Capacitor_SMD:C_0603_1608Metric" H 10013 925 50  0001 C CNN
F 3 "~" H 9975 1075 50  0001 C CNN
	1    9975 1075
	1    0    0    -1  
$EndComp
Wire Wire Line
	9575 975  9775 975 
Wire Wire Line
	9775 900  9775 975 
Connection ~ 9775 975 
Wire Wire Line
	9775 975  9975 975 
Wire Wire Line
	9675 1175 9775 1175
Wire Wire Line
	9775 975  9775 1175
Connection ~ 9775 1175
Wire Wire Line
	9775 1175 9875 1175
$Comp
L power:GND #PWR037
U 1 1 5E5BEA5A
P 9575 1175
F 0 "#PWR037" H 9575 925 50  0001 C CNN
F 1 "GND" H 9580 1002 50  0001 C CNN
F 2 "" H 9575 1175 50  0001 C CNN
F 3 "" H 9575 1175 50  0001 C CNN
	1    9575 1175
	1    0    0    -1  
$EndComp
$Comp
L power:GND #PWR040
U 1 1 5E5BF104
P 9975 1175
F 0 "#PWR040" H 9975 925 50  0001 C CNN
F 1 "GND" H 9980 1002 50  0001 C CNN
F 2 "" H 9975 1175 50  0001 C CNN
F 3 "" H 9975 1175 50  0001 C CNN
	1    9975 1175
	1    0    0    -1  
$EndComp
$Comp
L power:GND #PWR039
U 1 1 5E5BFEE9
P 9775 2450
F 0 "#PWR039" H 9775 2200 50  0001 C CNN
F 1 "GND" H 9780 2277 50  0001 C CNN
F 2 "" H 9775 2450 50  0001 C CNN
F 3 "" H 9775 2450 50  0001 C CNN
	1    9775 2450
	1    0    0    -1  
$EndComp
Wire Wire Line
	9675 2375 9775 2375
Wire Wire Line
	9775 2450 9775 2375
Connection ~ 9775 2375
Wire Wire Line
	9775 2375 9875 2375
$Comp
L power:+3.3V #PWR042
U 1 1 5E5C9318
P 10375 2075
F 0 "#PWR042" H 10375 1925 50  0001 C CNN
F 1 "+3.3V" H 10500 2175 50  0000 C CNN
F 2 "" H 10375 2075 50  0001 C CNN
F 3 "" H 10375 2075 50  0001 C CNN
	1    10375 2075
	1    0    0    -1  
$EndComp
Text Notes 6500 2400 0    30   ~ 0
I2C ADDRESS\n--------\nGND = 0x44\nVCC = 0x45
Text Notes 10400 1400 0    30   ~ 0
SDO I2C ADDRESS\n--------\nGND = 0x76\nVCC = 0x77
$Comp
L power:GND #PWR041
U 1 1 5E5D07D3
P 10375 1475
F 0 "#PWR041" H 10375 1225 50  0001 C CNN
F 1 "GND" H 10380 1302 50  0001 C CNN
F 2 "" H 10375 1475 50  0001 C CNN
F 3 "" H 10375 1475 50  0001 C CNN
	1    10375 1475
	1    0    0    -1  
$EndComp
Text Label 10375 1675 0    50   ~ 0
SHT31_CLK
Text Label 10375 1875 0    50   ~ 0
SHT31_DATA
Text Notes 8825 675  0    100  ~ 0
HUMIDITY / TEMP SENSOR
Wire Notes Line
	11225 2625 11225 2600
Wire Notes Line
	475  2625 11225 2625
Text Notes 7350 4450 0    25   ~ 0
SPI     MOSI MISO CLK CS\nVSPI  23       19      18     5\nHSPI  13       12      14     15 
Text Label 6975 4400 0    50   ~ 0
EPD_CS
Text Label 6975 4000 0    50   ~ 0
EPD_BUSY
Text Label 6975 4100 0    50   ~ 0
EPD_RST
Text Label 6975 3900 0    50   ~ 0
EPD_DC
Text Label 6975 4500 0    50   ~ 0
DONE
NoConn ~ 5775 3700
NoConn ~ 5775 3800
NoConn ~ 6975 5800
NoConn ~ 6975 5700
NoConn ~ 6975 5600
NoConn ~ 6975 5500
NoConn ~ 6975 5200
NoConn ~ 6975 5100
NoConn ~ 6975 5000
NoConn ~ 6975 4900
NoConn ~ 6700 1850
$Comp
L power:GND #PWR035
U 1 1 5E579A84
P 7375 3500
F 0 "#PWR035" H 7375 3250 50  0001 C CNN
F 1 "GND" H 7380 3327 50  0001 C CNN
F 2 "" H 7375 3500 50  0001 C CNN
F 3 "" H 7375 3500 50  0001 C CNN
	1    7375 3500
	1    0    0    -1  
$EndComp
$Comp
L Switch:SW_Push SW2
U 1 1 5E68D5EF
P 7175 3500
F 0 "SW2" H 7175 3785 50  0000 C CNN
F 1 "B3FS-1000" H 7175 3694 50  0000 C CNN
F 2 "Button_Switch_SMD:SW_SPST_B3S-1000" H 7175 3700 50  0001 C CNN
F 3 "~" H 7175 3700 50  0001 C CNN
	1    7175 3500
	1    0    0    -1  
$EndComp
$Comp
L ws:EPD_REVERSE O1
U 1 1 5E69CCFF
P 4050 7400
F 0 "O1" H 4128 7430 30  0000 L CNN
F 1 "EPD" H 4128 7370 30  0000 L CNN
F 2 "ws:2.13inch_EPD" H 4050 7400 30  0001 C CNN
F 3 "" H 4050 7400 30  0001 C CNN
	1    4050 7400
	1    0    0    -1  
$EndComp
$Comp
L Mechanical:MountingHole H1
U 1 1 5E45F1B9
P 4850 6850
F 0 "H1" H 4950 6896 50  0000 L CNN
F 1 "MountingHole" H 4950 6805 50  0000 L CNN
F 2 "MountingHole:MountingHole_2.2mm_M2" H 4850 6850 50  0001 C CNN
F 3 "~" H 4850 6850 50  0001 C CNN
	1    4850 6850
	1    0    0    -1  
$EndComp
$Comp
L Mechanical:MountingHole H2
U 1 1 5E46137E
P 4850 7075
F 0 "H2" H 4950 7121 50  0000 L CNN
F 1 "MountingHole" H 4950 7030 50  0000 L CNN
F 2 "MountingHole:MountingHole_2.2mm_M2" H 4850 7075 50  0001 C CNN
F 3 "~" H 4850 7075 50  0001 C CNN
	1    4850 7075
	1    0    0    -1  
$EndComp
$Comp
L Mechanical:MountingHole H3
U 1 1 5E4614CF
P 4850 7325
F 0 "H3" H 4950 7371 50  0000 L CNN
F 1 "MountingHole" H 4950 7280 50  0000 L CNN
F 2 "MountingHole:MountingHole_2.2mm_M2" H 4850 7325 50  0001 C CNN
F 3 "~" H 4850 7325 50  0001 C CNN
	1    4850 7325
	1    0    0    -1  
$EndComp
$Comp
L Mechanical:MountingHole H4
U 1 1 5E461767
P 4850 7575
F 0 "H4" H 4950 7621 50  0000 L CNN
F 1 "MountingHole" H 4950 7530 50  0000 L CNN
F 2 "MountingHole:MountingHole_2.2mm_M2" H 4850 7575 50  0001 C CNN
F 3 "~" H 4850 7575 50  0001 C CNN
	1    4850 7575
	1    0    0    -1  
$EndComp
Wire Wire Line
	6975 3700 7925 3700
$Comp
L Connector:TestPoint TP1
U 1 1 5E641844
P 7925 3700
F 0 "TP1" V 7879 3888 50  0001 L CNN
F 1 "TestPoint" V 7925 3888 50  0000 L CNN
F 2 "TestPoint:TestPoint_Pad_2.0x2.0mm" H 8125 3700 50  0001 C CNN
F 3 "~" H 8125 3700 50  0001 C CNN
	1    7925 3700
	0    1    1    0   
$EndComp
$Comp
L Connector:TestPoint TP2
U 1 1 5E6540A9
P 7925 4600
F 0 "TP2" V 7879 4788 50  0001 L CNN
F 1 "TestPoint" V 7925 4788 50  0000 L CNN
F 2 "TestPoint:TestPoint_Pad_2.0x2.0mm" H 8125 4600 50  0001 C CNN
F 3 "~" H 8125 4600 50  0001 C CNN
	1    7925 4600
	0    1    1    0   
$EndComp
Wire Wire Line
	6975 4600 7925 4600
$Comp
L Connector:TestPoint TP3
U 1 1 5E668EBC
P 7925 5300
F 0 "TP3" V 7879 5488 50  0001 L CNN
F 1 "TestPoint" V 7925 5488 50  0000 L CNN
F 2 "TestPoint:TestPoint_Pad_2.0x2.0mm" H 8125 5300 50  0001 C CNN
F 3 "~" H 8125 5300 50  0001 C CNN
	1    7925 5300
	0    1    1    0   
$EndComp
$Comp
L Connector:TestPoint TP4
U 1 1 5E66A2FC
P 7925 5400
F 0 "TP4" V 7879 5588 50  0001 L CNN
F 1 "TestPoint" V 7925 5588 50  0000 L CNN
F 2 "TestPoint:TestPoint_Pad_2.0x2.0mm" H 8125 5400 50  0001 C CNN
F 3 "~" H 8125 5400 50  0001 C CNN
	1    7925 5400
	0    1    1    0   
$EndComp
$Comp
L RF_Module:ESP32-WROOM-32 U1
U 1 1 5E2CA09E
P 6375 4700
F 0 "U1" H 6375 4700 50  0000 C CNN
F 1 "ESP32-WROOM-32" H 6250 4925 50  0000 C CNN
F 2 "RF_Module:ESP32-WROOM-32" H 6375 3200 50  0001 C CNN
F 3 "https://www.espressif.com/sites/default/files/documentation/esp32-wroom-32_datasheet_en.pdf" H 6075 4750 50  0001 C CNN
	1    6375 4700
	1    0    0    -1  
$EndComp
Wire Wire Line
	6975 5300 7925 5300
Wire Wire Line
	7925 5400 6975 5400
$EndSCHEMATC
