(module B3FS-1000 (layer F.Cu) (tedit 5DF199EB)
  (descr "Surface Mount Tactile Switch for High-Density Packaging")
  (tags "Tactile Switch")
  (attr smd)
  (fp_text reference SW4 (at 0 -4.5) (layer F.SilkS)
    (effects (font (size 1 1) (thickness 0.15)))
  )
  (fp_text value " B3FS-1000" (at 0 4.5) (layer F.Fab)
    (effects (font (size 1 1) (thickness 0.15)))
  )
  (fp_line (start -3 3.3) (end -3 -3.3) (layer F.Fab) (width 0.1))
  (fp_line (start 3 3.3) (end -3 3.3) (layer F.Fab) (width 0.1))
  (fp_line (start 3 -3.3) (end 3 3.3) (layer F.Fab) (width 0.1))
  (fp_line (start -3 -3.3) (end 3 -3.3) (layer F.Fab) (width 0.1))
  (fp_circle (center 0 0) (end 1.65 0) (layer F.Fab) (width 0.1))
  (fp_line (start 3.15 -1.3) (end 3.15 1.3) (layer F.SilkS) (width 0.12))
  (fp_line (start -3.15 3.45) (end -3.15 3.2) (layer F.SilkS) (width 0.12))
  (fp_line (start 3.15 3.45) (end -3.15 3.45) (layer F.SilkS) (width 0.12))
  (fp_line (start 3.15 3.2) (end 3.15 3.45) (layer F.SilkS) (width 0.12))
  (fp_line (start -3.15 1.3) (end -3.15 -1.3) (layer F.SilkS) (width 0.12))
  (fp_line (start 3.15 -3.45) (end 3.15 -3.2) (layer F.SilkS) (width 0.12))
  (fp_line (start -3.15 -3.45) (end 3.15 -3.45) (layer F.SilkS) (width 0.12))
  (fp_line (start -3.15 -3.2) (end -3.15 -3.45) (layer F.SilkS) (width 0.12))
  (fp_line (start -5 -3.7) (end -5 3.7) (layer F.CrtYd) (width 0.05))
  (fp_line (start 5 -3.7) (end -5 -3.7) (layer F.CrtYd) (width 0.05))
  (fp_line (start 5 3.7) (end 5 -3.7) (layer F.CrtYd) (width 0.05))
  (fp_line (start -5 3.7) (end 5 3.7) (layer F.CrtYd) (width 0.05))
  (fp_text user %R (at 0 -4.5) (layer F.Fab)
    (effects (font (size 1 1) (thickness 0.15)))
  )
  (pad 4 smd rect (at 3.975 2.25) (size 1.55 1.3) (layers F.Cu F.Paste F.Mask))
  (pad 3 smd rect (at -3.975 2.25) (size 1.55 1.3) (layers F.Cu F.Paste F.Mask))
  (pad 2 smd rect (at 3.975 -2.25) (size 1.55 1.3) (layers F.Cu F.Paste F.Mask))
  (pad 1 smd rect (at -3.975 -2.25) (size 1.55 1.3) (layers F.Cu F.Paste F.Mask))
  (model ${KIPRJMOD}/3dmodels/B3FS_1000.step
    (at (xyz 0 0 0))
    (scale (xyz 1 1 1))
    (rotate (xyz -90 0 0))
  )
)
